{
	"info": {
		"_postman_id": "5ae67a87-e440-4f60-b67a-330684bfbbac",
		"name": "Snakes and Ladders",
		"schema": "https://schema.getpostman.com/json/collection/v2.1.0/collection.json"
	},
	"item": [
		{
			"name": "localhost:8080/players/1/move",
			"request": {
				"method": "PUT",
				"header": [],
				"body": {
					"mode": "raw",
					"raw": "{\n    \"diceValue\": 5\n}",
					"options": {
						"raw": {
							"language": "json"
						}
					}
				},
				"url": {
					"raw": "localhost:8080/players/1/move",
					"host": [
						"localhost"
					],
					"port": "8080",
					"path": [
						"players",
						"1",
						"move"
					]
				},
				"description": "Move the player to 5 spaces"
			},
			"response": []
		},
		{
			"name": "localhost:8080/dice/roll",
			"request": {
				"method": "PUT",
				"header": [],
				"url": {
					"raw": "localhost:8080/dice/roll",
					"host": [
						"localhost"
					],
					"port": "8080",
					"path": [
						"dice",
						"roll"
					]
				},
				"description": "Roll the dice"
			},
			"response": []
		},
		{
			"name": "localhost:8080/players/1",
			"request": {
				"method": "GET",
				"header": [],
				"url": {
					"raw": "localhost:8080/players/1",
					"host": [
						"localhost"
					],
					"port": "8080",
					"path": [
						"players",
						"1"
					]
				}
			},
			"response": []
		}
	]
}